<svg xmlns="http://www.w3.org/2000/svg" width="419.405" height="304.481" viewBox="0 0 419.405 304.481">
  <path id="Path_40253" data-name="Path 40253" d="M663.35,270.5c11.173,13.084.284,31.2-12.271,39.08-35.267,27.183-79.132,13.059-116.826-.761C488.754,296.43,430.019,291.3,392.93,325.18c-11.681,9.965-18.706,31.116-4.176,41.441,7.922,4.985,25.632,4.9,24.292,17.853-16.638,22.121-57.812,1.626-81.117,17.742-69.875,42.017,1.5,128.559,77.725,75.2,28.5-13.029,47.59,2,59.973,26.686,13.342,15.711,41.209,15.393,54.186-.621,53.23-81.262,64.4,41.923,199.038,9.788v-299C718.549,216.013,610.313,241.968,663.35,270.5Z" transform="translate(-303.446 -214.269)" fill="#faf9f6"/>
</svg>
